  Name,                   eps_opt,                                                        eps_s,                                                                     deps_dt,                                          rs,                  msa_param_cat,         msa_param_cat_slope,          msa_param_an,          msa_param_an_slope,          msa_param_sym,         msa_param_sym_slope,                      alpha_f,                                                      EXP_G,                                                            EXP_S,                                                              EXP_HEATCAP,                                   Tmin,                        Tmax
     W,                    1.776,                          @(tx)87.740-0.40008.*tx+9.398e-4.*tx.^2-1.410e-6.*tx.^3,                              @(tx)-0.40008+2*9.398e-4.*tx.^1-3*1.410e-6.*tx.^2,                   1.370,                   0.826,                    0.00036,                   0.208,                    0.00033,                   0.516,                    0.00048,                    @(T)0.670476+0.000594*T,                       [-529 -424 -352 -329 -306 0 -304 -278 -243],                         [-164 -133  -96  -87  -81  0 -53  -37  -14],                        [-9  -28 -58  -80  -94  0 -56   -60  -50],                       0.00,                       100.00
  MeOH,                    1.760,                                          @(tx)10^(log10(32.63)-0.264e-2*(tx-25)),                    @(tx)0.264e-2*log(10)*(-10^(log10(32.63)-0.264e-2*(tx-25))),                   1.855,                   0.827,                    0.00075,                   0.244,                    0.00022,                   0.838,                    0.00106,                    @(T)1.006020+0.001186*T,                       [-525 -416 -342 -319 -297 0 -291 -267 -236],                         [-252 -230 -192 -175  -158 0 -69  -59  -42],                        [-20  42  56   0    43  0 -102  -76  -56],                       5.00,                       55.00
  EtOH,                    1.848,                                          @(tx) 10^(log10(24.3)-0.270e-2*(tx-25)),                    @(tx) 0.270e-2*log(10)*(-10^(log10(24.3)-0.270e-2*(tx-25))),                   2.180,                   0.839,                    0.00074,                   0.269,                    0.00022,                   1.046,                    0.00133,                    @(T)0.670476+0.000594*T,                       [-518 -410 -335 -313 -291 0 -284 -260 -230],                         [-269 -246 -218 -187  -170 0 -87  -80  -59],                        [ 3   91  129  0    122 0 -185  -170 -93],                      -5.00,                       70.00                                                                          
     F,                    2.093,                                                           @(tx)109-72e-2*(tx-20),                                                                    @(tx)-72e-2,                   1.725,                   0.799,                    0.00063,                   0.293,                    0.00066,                   0.606,                    0.00079,                    @(T)0.753585+0.000960*T,                       [-539 -432 -356 -334 -312 0 -290 -267 -236],                         [-151 -162 -142 -130  -120 0 -87  -78  -61],                        [13   89  41   0    43  0  -6    3    24],                        18,                        25
    AN,                    1.800,                                                         @(tx)37.50-16e-2*(tx-20),                                                                    @(tx)-16e-2,                   2.135,                   0.871,                    0.00092,                   0.410,                    0.00094,                   0.937,                    0.00084,                    @(T)1.131184+0.000920*T,                       [-504 -409 -344 -323 -300 0 -262 -247 -226],                         [-275 -228 -200 -191  -189 0 -129 -115 -96],                        [52   81  31   35   33  0  55    38   29],                       15,                         25
   DMF,                    2.040,                    @(tx)-1.000389e-6*tx^3+7.718531e-4*tx^2-0.2204448*tx+42.04569,                         @(tx)-3*1.000389e-6.*tx.^2+2*7.718531e-4.*tx-0.2204448,                   2.585,                   0.758,                    0.00072,                   0.450,                    0.00123,                   1.140,                    0.00116,                    @(T)1.341465+0.001222*T,                       [-539 -434 -362 -339 -317 0 -256 -242 -223],                         [-216 -209 -182 -176  -161 0 -155 -156 -133],                       [-14  32  35   34   29  0  108   84   58],                      -60.00,                      120.00
  DMSO,                    2.182,                            @(tx) -60.5+(5.7e4/(tx+273.15))-(7.5e6/(tx+273.15)^2),                                              @(tx) (-5.7e-4/tx^2)+(15e-6/tx^3),                   2.455,                   0.753,                    0.00083,                   0.391,                    0.00101,                   1.029,                    0.00048,                    @(T)0.670476+0.000594*T,                       [-544 -437 -365 -339 -319 0 -264 -251 -233],                         [-205 -187 -172 -180  -148 0 -122 -113 -87],                        [-46 -26 -27   0   -35  0  58    95   114],                      19.80,                      59.80                                                                              
    NM,                    1.903,                                          @(tx) 10^(log10(35.8)-0.189e-2*(tx-30)),                    @(tx) 0.189e-2*log(10)*(-10^(log10(35.8)-0.189e-2*(tx-30))),                   2.155,                   0.938,                    0.00090,                   0.392,                    0.00086,                   0.955,                    0.00090,                    @(T)0.670476+0.000594*T,                       [-481 -392 -337 -318 -300 0 -266 -249 -224],                         [-239 -202 -211 -183  -155 0 -109 -110 -103],                       [200  134 30   0    1   0  61    107  64],                       12.00,                      92.00          
    PC,                    2.019,                                     @(tx) -0.00077143*tx^2+0.258431*tx+56.670738,                                                @(tx) -0.00077143*2*tx+0.258431,                   2.680,                   0.875,                    0.00095,                   0.419,                    0.00082,                   1.046,                    0.00078,                    @(T)0.670476+0.000594*T,                       [-505 -409 -347 -330 -313 0 -264 -248 -229],                         [-235 -218 -191 -167  -149 0 -99  -87  -65],                        [27   57  38   36   36 0   44    44   41],                       10.00,                      55.00                                                                              